^C:\USERS\LEONA\SOURCE\REPOS\CRUNCH-MASTER\X64\RELEASE\BINARY.OBJ|C:\USERS\LEONA\SOURCE\REPOS\CRUNCH-MASTER\X64\RELEASE\BITMAP.OBJ|C:\USERS\LEONA\SOURCE\REPOS\CRUNCH-MASTER\X64\RELEASE\GUILLOTINEBINPACK.OBJ|C:\USERS\LEONA\SOURCE\REPOS\CRUNCH-MASTER\X64\RELEASE\HASH.OBJ|C:\USERS\LEONA\SOURCE\REPOS\CRUNCH-MASTER\X64\RELEASE\LODEPNG.OBJ|C:\USERS\LEONA\SOURCE\REPOS\CRUNCH-MASTER\X64\RELEASE\MAIN.OBJ|C:\USERS\LEONA\SOURCE\REPOS\CRUNCH-MASTER\X64\RELEASE\MAXRECTSBINPACK.OBJ|C:\USERS\LEONA\SOURCE\REPOS\CRUNCH-MASTER\X64\RELEASE\PACKER.OBJ|C:\USERS\LEONA\SOURCE\REPOS\CRUNCH-MASTER\X64\RELEASE\RECT.OBJ|C:\USERS\LEONA\SOURCE\REPOS\CRUNCH-MASTER\X64\RELEASE\STR.OBJ
C:\USERS\LEONA\SOURCE\REPOS\CRUNCH-MASTER\X64\RELEASE\CRUNCH.EXE
C:\USERS\LEONA\SOURCE\REPOS\CRUNCH-MASTER\X64\RELEASE\CRUNCH.PDB
