﻿{
  "Name": "Teste",
  "Music": {
    "Name": "fristsong",
    "LoopStart": {
      "Seconds": 3,
      "MilliSeconds": 744
    }
  },
  "Backgrounds": [
    {
      "ImageName": "backgrounds/background-teste6",
      "PosX": -500,
      "PosY": 0
    },
    {
      "ImageName": "backgrounds/background-teste6",
      "PosX": 50,
      "PosY": 0
    },
    {
      "ImageName": "backgrounds/background-teste5",
      "PosX": 600,
      "PosY": 0
    },
    {
      "ImageName": "backgrounds/background-teste2",
      "PosX": 1150,
      "PosY": 0
    }
  ],
  "Floors": [
    {
      "Rectangle": {
        "X": 0,
        "Y": 192,
        "Width": 2200,
        "Height": 220
      },

      "TerrainType": "Square"
    }
  ],
  "Walls": [
    {
      "Rectangle": {
        "X": 0,
        "Y": 0,
        "Width": 1440,
        "Height": 192
      },
      "TerrainType": "Square"
    }
  ],
  "PlayersStart": [
    {
      "X": 250,
      "Y": 220,
      "Z": -2
    },
    {
      "X": 150,
      "Y": 250,
      "Z": -2
    },
    {
      "X": 50,
      "Y": 280,
      "Z": -2
    }
  ],
  "Sections": [
    {
      "Bounds": {
        "X": 120,
        "Y": 0,
        "Width": 480,
        "Height": 312
      },
      "Trigger": {
        "X": 360,
        "Y": 0,
        "Width": 240,
        "Height": 312
      },
      "NextLimits": {
        "X": 100,
        "Y": 0,
        "Width": 1080,
        "Height": 312
      },
      "CreateEnemyEventDataList": [
        {
          "Name": "Enemy",
          "Delay": 1,
          "MinEnemiesCount": 9,
          "SpawnPoint": {
            "X": 80,
            "Y": 210
          },
          "DestinationPoint": {
            "X": 150,
            "Y": 210
          }
        },
        {
          "Name": "Enemy",
          "Delay": 3,
          "MinEnemiesCount": 9,
          "SpawnPoint": {
            "X": 550,
            "Y": 210
          },
          "DestinationPoint": {
            "X": 450,
            "Y": 210
          }
        },
        {
          "Name": "Enemy",
          "Delay": 1,
          "MinEnemiesCount": 2,
          "SpawnPoint": {
            "X": 550,
            "Y": 210
          },
          "DestinationPoint": {
            "X": 450,
            "Y": 210
          }
        }

      ]

    },
    {
      "Bounds": {
        "X": 600,
        "Y": 0,
        "Width": 480,
        "Height": 312
      },
      "Trigger": {
        "X": 840,
        "Y": 0,
        "Width": 240,
        "Height": 312
      },
      "NextLimits": {
        "X": 600,
        "Y": 0,
        "Width": 2000,
        "Height": 312
      },
      "CreateEnemyEventDataList": [
        {
          "Name": "Enemy",
          "Delay": 1,
          "MinEnemiesCount": 9,
          "SpawnPoint": {
            "X": 480,
            "Y": 210
          },
          "DestinationPoint": {
            "X": 550,
            "Y": 210
          }
        },
        {
          "Name": "Enemy",
          "Delay": 3,
          "MinEnemiesCount": 9,
          "SpawnPoint": {
            "X": 950,
            "Y": 210
          },
          "DestinationPoint": {
            "X": 850,
            "Y": 210
          }
        },
        {
          "Name": "Enemy",
          "Delay": 1,
          "MinEnemiesCount": 2,
          "SpawnPoint": {
            "X": 480,
            "Y": 210
          },
          "DestinationPoint": {
            "X": 850,
            "Y": 210
          }
        },
        {
          "Name": "Enemy",
          "Delay": 0.2,
          "MinEnemiesCount": 9,
          "SpawnPoint": {
            "X": 950,
            "Y": 190
          },
          "DestinationPoint": {
            "X": 850,
            "Y": 210
          }
        },
        {
          "Name": "Enemy",
          "Delay": 0.2,
          "MinEnemiesCount": 9,
          "SpawnPoint": {
            "X": 480,
            "Y": 170
          },
          "DestinationPoint": {
            "X": 850,
            "Y": 210
          }
        },
        {
          "Name": "Enemy",
          "Delay": 0.2,
          "MinEnemiesCount": 9,
          "SpawnPoint": {
            "X": 950,
            "Y": 240
          },
          "DestinationPoint": {
            "X": 850,
            "Y": 210
          }
        }

      ]

    }
  ],

  "Entities": [
    {
      "EntityType": "block",
      "EntityFile": "Barrel",
      "Position": {
        "X": 300,
        "Y": 200,
        "Z": -200
      },
      "Trigger": {
        "X": 0,
        "Y": 0,
        "Width": 600,
        "Height": 400
      }
    },
    {
      "EntityType": "bomb",
      "EntityFile": "Bomb",
      "Position": {
        "X": 340,
        "Y": 200,
        "Z": -200
      },
      "Trigger": {
        "X": 0,
        "Y": 0,
        "Width": 600,
        "Height": 400
      }
    },
    {
      "EntityType": "enemy",
      "EntityFile": "Enemy",
      "Position": {
        "X": 1500,
        "Y": 240,
        "Z": -200
      },
      "Trigger": {
        "X": 1400,
        "Y": 0,
        "Width": 400,
        "Height": 400
      }
    },
    {
      "EntityType": "enemy",
      "EntityFile": "Boss",
      "Position": {
        "X": 1800,
        "Y": 240,
        "Z": -100
      },
      "Trigger": {
        "X": 1400,
        "Y": 0,
        "Width": 400,
        "Height": 400
      }
    }

  ],

  "CameraLimits": {
    "X": 0,
    "Y": 0,
    "Width": 600,
    "Height": 312
  }
}