﻿{
  "Name": "Boss",
  "Width": 24,
  "Height": 90,
  "Sprite": {
    "Name": "boss",
    "Y": -9,
    "LeftOffsetX": -33,
    "RightOffsetX": -33
  },
  "HP": 300,
  "Velocity": 100,  
  "Jump": {
    "Height": 300,
    "Delay": 0.15,
    "StartJumpAnimation": "start-jump"
  },
  "Player": false,
  "standingAttacks": [
    {
      "Damage": 5,
      "Delay": 0.1,
      "Duration": 0.2,
      "Cooldown": 0.1,
      "Range": 20,
      "KnockDown": false,
      "AnimationName": "standing-attack-1",
      "AttackArea": {
        "X": 0,
        "Y": 3,
        "Width": 20,
        "Height": 12
      }
    }
  ],
  "airAttacks": [

  ],
  "grabAttacks": [

  ],
  "specialAttacks": null
}